{"resultInfo":{"success":true,"code":null,"message":null,"data":{"pagination":{"numPerPage":10,"totalRows":60,"totalPages":6,"currentPage":1,"startIndex":0,"lastIndex":10,"resultList":null,"resultMapList":[{"event_src_name":"社会公众举报","event_desc":"测试","act_property_id":101,"event_grade_name":null,"event_type_id":1,"main_type_name":"市容环境","patrol_name":null,"coordinate_x":505450.1242524326,"num":1,"coordinate_y":305419.7712849596,"event_type_name":"事件","address":"西石槽胡同7号住宅(东南2.68米)","task_num":"201806020001","main_type_id":11,"create_time":"2018-06-02 13:28:58","sub_type_name":"水域秩序问题水域秩序问题水域秩序问题水域秩序问题","event_src_id":11,"part_code":null,"sub_type_id":37,"rec_id":1980,"act_property_name":"[办结]"},{"event_src_name":"社会公众举报","event_desc":"测试","act_property_id":101,"event_grade_name":null,"event_type_id":1,"main_type_name":"市容环境","patrol_name":null,"coordinate_x":504992.9233380308,"num":2,"coordinate_y":305995.5057697619,"event_type_name":"事件","address":"前厂胡同29,甲29号住宅(正西5.24米)","task_num":"201805160001","main_type_id":11,"create_time":"2018-05-16 14:55:42","sub_type_name":"道路遗撒","event_src_id":11,"part_code":null,"sub_type_id":39,"rec_id":1940,"act_property_name":"[办结]"},{"event_src_name":"社会公众举报","event_desc":"测试","act_property_id":101,"event_grade_name":"日常","event_type_id":1,"main_type_name":"市容环境","patrol_name":null,"coordinate_x":505788.79159643396,"num":3,"coordinate_y":308569.3775841722,"event_type_name":"事件","address":"北新桥三条1号中华全国归国华侨联合会(西北1.15米)","task_num":"201805100001","main_type_id":11,"create_time":"2018-05-10 11:33:38","sub_type_name":"水域秩序问题水域秩序问题水域秩序问题水域秩序问题","event_src_id":11,"part_code":null,"sub_type_id":37,"rec_id":1918,"act_property_name":"[办结]"},{"event_src_name":"社会公众举报","event_desc":"测试","act_property_id":101,"event_grade_name":"日常","event_type_id":1,"main_type_name":"市容环境","patrol_name":null,"coordinate_x":504383.32211882836,"num":4,"coordinate_y":308908.04492817353,"event_type_name":"事件","address":"安定门内大街40-2号首饰店(西南2.92米)","task_num":"201805090001","main_type_id":11,"create_time":"2018-05-09 09:09:28","sub_type_name":"水域秩序问题水域秩序问题水域秩序问题水域秩序问题","event_src_id":11,"part_code":null,"sub_type_id":37,"rec_id":1901,"act_property_name":"[办结]"},{"event_src_name":"社会公众举报","event_desc":"测试","act_property_id":101,"event_grade_name":"日常","event_type_id":1,"main_type_name":"市容环境","patrol_name":null,"coordinate_x":504146.2549780274,"num":5,"coordinate_y":308857.24482657335,"event_type_name":"事件","address":"灵光胡同28号住宅(西南12.11米)","task_num":"201805080001","main_type_id":11,"create_time":"2018-05-08 20:03:11","sub_type_name":"水域秩序问题水域秩序问题水域秩序问题水域秩序问题","event_src_id":11,"part_code":null,"sub_type_id":37,"rec_id":1900,"act_property_name":"[办结]"},{"event_src_name":"巡查上报","event_desc":"test","act_property_id":101,"event_grade_name":null,"event_type_id":1,"main_type_name":"市容环境","patrol_name":"测试账号egova","coordinate_x":504874.38976763,"num":6,"coordinate_y":305487.50475376,"event_type_name":"事件","address":"甘雨胡同33号渊之然超市(西南16.73米)","task_num":"201805040002","main_type_id":11,"create_time":"2018-05-04 11:20:21","sub_type_name":"水域秩序问题水域秩序问题水域秩序问题水域秩序问题","event_src_id":1,"part_code":null,"sub_type_id":37,"rec_id":1859,"act_property_name":"[办结]"},{"event_src_name":"社会公众举报","event_desc":"test","act_property_id":101,"event_grade_name":"日常","event_type_id":1,"main_type_name":"市容环境","patrol_name":null,"coordinate_x":505399.3241508324,"num":7,"coordinate_y":304395.3025693555,"event_type_name":"事件","address":"建国门内大街28号光彩国际中心南侧正门(正北21.99米)","task_num":"201805040001","main_type_id":11,"create_time":"2018-05-04 10:06:01","sub_type_name":"水域秩序问题水域秩序问题水域秩序问题水域秩序问题","event_src_id":11,"part_code":null,"sub_type_id":37,"rec_id":1858,"act_property_name":"[办结]"},{"event_src_name":"社会公众举报","event_desc":"测试","act_property_id":101,"event_grade_name":"日常","event_type_id":1,"main_type_name":"市容环境","patrol_name":null,"coordinate_x":504535.72242362896,"num":8,"coordinate_y":308840.3114593733,"event_type_name":"事件","address":"永康胡同5号五道营社区居委会(东北13.57米)","task_num":"201805030001","main_type_id":11,"create_time":"2018-05-03 10:24:22","sub_type_name":"水域秩序问题水域秩序问题水域秩序问题水域秩序问题","event_src_id":11,"part_code":null,"sub_type_id":37,"rec_id":1838,"act_property_name":"[办结]"},{"event_src_name":"社会公众举报","event_desc":"test","act_property_id":101,"event_grade_name":"日常","event_type_id":1,"main_type_name":"市容环境","patrol_name":null,"coordinate_x":505670.2580260335,"num":9,"coordinate_y":305140.3707261585,"event_type_name":"事件","address":"东堂子胡同30号北京市二十四中学后门(正南45.07米)","task_num":"201804260001","main_type_id":11,"create_time":"2018-04-26 17:50:57","sub_type_name":"水域秩序问题水域秩序问题水域秩序问题水域秩序问题","event_src_id":11,"part_code":null,"sub_type_id":37,"rec_id":1818,"act_property_name":"[办结]"},{"event_src_name":"社会公众举报","event_desc":"测试0501","act_property_id":101,"event_grade_name":null,"event_type_id":1,"main_type_name":"市容环境","patrol_name":null,"coordinate_x":504467.9889548287,"num":10,"coordinate_y":306757.50729376497,"event_type_name":"事件","address":"美术馆后街60-1号7-11便利店(东南11.20米)","task_num":"201804110002","main_type_id":11,"create_time":"2018-04-11 16:10:29","sub_type_name":"水域秩序问题水域秩序问题水域秩序问题水域秩序问题","event_src_id":11,"part_code":null,"sub_type_id":37,"rec_id":1779,"act_property_name":"[办结]"}],"querySql":"","objs":[],"success":true,"message":null,"pageInfo":{"totalPage":6,"currentPage":1,"totalRecord":60,"currentRecord":10,"numPerPage":10}}}}}

